…
  mutate(
    cumulative_population = cumsum(population),
    quantile_population = cumulative_population/max(cumulative_population),
    population_group = cut(
      quantile_population, 
      breaks = c(0, 0.25, 0.50, 0.78, 1),
      labels = c("small", "mid-small", "mid-large", "large")
    ),
    population_group = fct_rev(population_group)
  ) %>%
  arrange(desc(cumulative_population)) %>%
  print()
```

    ## # A tibble: 99 x 6
    ##     fips county   population cumulative_popul… quantile_popula… population_group
    ##    <dbl> <chr>         <dbl>             <dbl>            <dbl> <fct>           
    ##  1 19153 Polk         490161           3155070            1     large           
    ##  2 19113 Linn         226706           2664909            0.845 large           
    ##  3 19163 Scott        172943           2438203            0.773 mid-large       
    ##  4 19103 Johnson      151140           2265260            0.718 mid-large       
    ##  5 19013 Black H…     131228           2114120            0.670 mid-large       
    ##  6 19193 Woodbury     103107           1982892            0.628 mid-large       
    ##  7 19061 Dubuque       97311           1879785            0.596 mid-large       
    ##  8 19169 Story         97117           1782474            0.565 mid-large       
    ##  9 19049 Dallas        93453           1685357            0.534 mid-large       
    ## 10 19155 Pottawa…      93206           1591904            0.505 mid-large       
    ## # … with 89 more rows
…
